{
	"id": "52d11e4e-483b-4ed1-82fa-a2823d74b12c",
	"name": "Kaffeeland Loyalty (local)",
	"values": [
		{
			"key": "api_host",
			"value": "localhost:8080",
			"enabled": true
		},
		{
			"key": "card_id",
			"value": "98db4dcb-d9e0-423e-afff-c05338f05745",
			"enabled": true
		},
		{
			"key": "application",
			"value": "kaffeeland-ios",
			"enabled": true
		},
		{
			"key": "redemption_id",
			"value": "6338d49a-a96e-4d5f-964c-8ff351b837b6",
			"enabled": true
		}
	],
	"_postman_variable_scope": "environment",
	"_postman_exported_at": "2021-11-16T19:16:48.888Z",
	"_postman_exported_using": "Postman/7.36.5"
}